{
  "transforms.unwrap.type": "io.debezium.transforms.ExtractNewRecordState",
  "name": "customer-source",
  "connector.class": "io.debezium.connector.postgresql.PostgresConnector",
  "key.converter": "org.apache.kafka.connect.storage.StringConverter",
  "transforms": [
    "unwrap"
  ],
  "database.server.name": "docker-postgres",
  "database.hostname": "postgres",
  "database.port": "5432",
  "database.user": "postgres-user",
  "database.password": "***********",
  "database.dbname": "customers",
  "table.whitelist": [
    "public.customer"
  ]
}