{
    "name": "swm-test4-connector",
    "config": {
        "connector.class": "io.debezium.connector.mysql.MySqlConnector",
        "tasks.max": "1",  
        "database.hostname": "115.79.136.114", 
        "database.port": "3306", 
        "database.user": "root", 
        "database.password": "SML!@#123456", 
        "database.server.name": "swm-test4",
        "database.include.list": [
            "swm"
        ],
        "database.history.kafka.bootstrap.servers": "broker:29092", 
        "database.history.kafka.topic": "dbhistory.swm-test4"
    }
}